<?xml version="1.0" encoding="UTF-8"?>
<svg width="969px" height="547px" viewBox="0 0 969 547" version="1.1" xmlns="http://www.w3.org/2000/svg" xmlns:xlink="http://www.w3.org/1999/xlink">
    <title>Path Copy</title>
    <defs>
        <linearGradient x1="0%" y1="49.9949854%" x2="65.8084204%" y2="55.7691527%" id="lightbg-lg-1">
            <stop stop-color="#FFFFFF" stop-opacity="0" offset="0%"></stop>
            <stop stop-color="#FFFFFF" stop-opacity="0.4" offset="100%"></stop>
        </linearGradient>
    </defs>
    <g stroke="none" stroke-width="1" fill="none" fill-rule="evenodd" opacity="0.8">
        <path d="M969,546.682713 L742.741408,546.682713 L741.155483,547 L233.025205,547 C231.967921,546.894238 230.80491,546.788475 229.747627,546.682713 L0,546.682713 C48.3178396,543.721367 254.276596,317.918724 274.576432,235.84713 C294.876268,153.669775 328.286416,68.108024 395.318167,25.5915544 C455.477578,-12.5886583 534.668085,-6.66596606 593.453028,34.1583057 C652.132242,74.9825776 690.194435,147.112509 700.027169,222.732598 C705.525041,264.720255 702.45892,307.871299 709.542717,349.647432 C726.88216,452.025399 873.527332,522.040083 873.527332,522.040083 C873.527332,522.040083 915.07856,539.490872 969,546.682713 Z" id="Path-Copy" fill="url(#lightbg-lg-1)" fill-rule="nonzero"></path>
    </g>
</svg>
